ISO-10303-21;
HEADER;
FILE_DESCRIPTION(('STEP AP214'),'1');
FILE_NAME('/nfs2/iulian/tmp/CGM/voltest2.stp','2016-01-14T19:55:29',(' '),(' '),'Spatial InterOp 3D',' ',' ');
FILE_SCHEMA(('automotive_design'));
ENDSEC;
DATA;
#1=PRODUCT_DEFINITION_CONTEXT('',#17,'design');
#2=APPLICATION_PROTOCOL_DEFINITION('INTERNATIONAL STANDARD','automotive_design',1994,#17);
#3=PRODUCT_CATEGORY_RELATIONSHIP('NONE','NONE',#18,#19);
#4=SHAPE_DEFINITION_REPRESENTATION(#20,#21);
#5=PRODUCT_DEFINITION_CONTEXT('',#22,'design');
#6=APPLICATION_PROTOCOL_DEFINITION('INTERNATIONAL STANDARD','automotive_design',1994,#22);
#7=PRODUCT_CATEGORY_RELATIONSHIP('NONE','NONE',#23,#24);
#8=SHAPE_DEFINITION_REPRESENTATION(#25,#26);
#9=PRODUCT_DEFINITION_CONTEXT('',#27,'design');
#10=APPLICATION_PROTOCOL_DEFINITION('INTERNATIONAL STANDARD','automotive_design',1994,#27);
#11=PRODUCT_CATEGORY_RELATIONSHIP('NONE','NONE',#28,#29);
#12=SHAPE_DEFINITION_REPRESENTATION(#30,#31);
#13= (GEOMETRIC_REPRESENTATION_CONTEXT(3)GLOBAL_UNCERTAINTY_ASSIGNED_CONTEXT((#34))GLOBAL_UNIT_ASSIGNED_CONTEXT((#36,#37,#38))REPRESENTATION_CONTEXT('NONE','WORKSPACE'));
#17=APPLICATION_CONTEXT(' ');
#18=PRODUCT_CATEGORY('part','NONE');
#19=PRODUCT_RELATED_PRODUCT_CATEGORY('detail',' ',(#40));
#20=PRODUCT_DEFINITION_SHAPE('NONE','NONE',#41);
#21=ADVANCED_BREP_SHAPE_REPRESENTATION('1',(#42,#43),#13);
#22=APPLICATION_CONTEXT(' ');
#23=PRODUCT_CATEGORY('part','NONE');
#24=PRODUCT_RELATED_PRODUCT_CATEGORY('detail',' ',(#44));
#25=PRODUCT_DEFINITION_SHAPE('NONE','NONE',#45);
#26=ADVANCED_BREP_SHAPE_REPRESENTATION('2',(#46,#47),#13);
#27=APPLICATION_CONTEXT(' ');
#28=PRODUCT_CATEGORY('part','NONE');
#29=PRODUCT_RELATED_PRODUCT_CATEGORY('detail',' ',(#48));
#30=PRODUCT_DEFINITION_SHAPE('NONE','NONE',#49);
#31=ADVANCED_BREP_SHAPE_REPRESENTATION('3',(#50,#51),#13);
#34=UNCERTAINTY_MEASURE_WITH_UNIT(LENGTH_MEASURE(1.0E-06),#36,'','');
#36= (CONVERSION_BASED_UNIT('MILLIMETRE',#54)LENGTH_UNIT()NAMED_UNIT(#57));
#37= (NAMED_UNIT(#59)PLANE_ANGLE_UNIT()SI_UNIT($,.RADIAN.));
#38= (NAMED_UNIT(#59)SOLID_ANGLE_UNIT()SI_UNIT($,.STERADIAN.));
#40=PRODUCT('1','1','PART-1-DESC',(#65));
#41=PRODUCT_DEFINITION('NONE','NONE',#66,#1);
#42=MANIFOLD_SOLID_BREP('1',#67);
#43=AXIS2_PLACEMENT_3D('',#68,#69,#70);
#44=PRODUCT('2','2','PART-2-DESC',(#71));
#45=PRODUCT_DEFINITION('NONE','NONE',#72,#5);
#46=MANIFOLD_SOLID_BREP('2',#73);
#47=AXIS2_PLACEMENT_3D('',#74,#75,#76);
#48=PRODUCT('3','3','PART-3-DESC',(#77));
#49=PRODUCT_DEFINITION('NONE','NONE',#78,#9);
#50=MANIFOLD_SOLID_BREP('3',#79);
#51=AXIS2_PLACEMENT_3D('',#80,#81,#82);
#54=LENGTH_MEASURE_WITH_UNIT(LENGTH_MEASURE(1.0),#83);
#57=DIMENSIONAL_EXPONENTS(1.0,0.0,0.0,0.0,0.0,0.0,0.0);
#59=DIMENSIONAL_EXPONENTS(0.0,0.0,0.0,0.0,0.0,0.0,0.0);
#65=PRODUCT_CONTEXT('',#17,'mechanical');
#66=PRODUCT_DEFINITION_FORMATION_WITH_SPECIFIED_SOURCE(' ','NONE',#40,.NOT_KNOWN.);
#67=CLOSED_SHELL('',(#84,#85,#86,#87,#88,#89));
#68=CARTESIAN_POINT('',(0.0,0.0,0.0));
#69=DIRECTION('',(0.0,0.0,1.0));
#70=DIRECTION('',(1.0,0.0,0.0));
#71=PRODUCT_CONTEXT('',#22,'mechanical');
#72=PRODUCT_DEFINITION_FORMATION_WITH_SPECIFIED_SOURCE(' ','NONE',#44,.NOT_KNOWN.);
#73=CLOSED_SHELL('',(#90,#91,#92,#93,#94,#95));
#74=CARTESIAN_POINT('',(0.0,0.0,0.0));
#75=DIRECTION('',(0.0,0.0,1.0));
#76=DIRECTION('',(1.0,0.0,0.0));
#77=PRODUCT_CONTEXT('',#27,'mechanical');
#78=PRODUCT_DEFINITION_FORMATION_WITH_SPECIFIED_SOURCE(' ','NONE',#48,.NOT_KNOWN.);
#79=CLOSED_SHELL('',(#96,#97,#98,#99,#100,#101));
#80=CARTESIAN_POINT('',(0.0,0.0,0.0));
#81=DIRECTION('',(0.0,0.0,1.0));
#82=DIRECTION('',(1.0,0.0,0.0));
#83= (NAMED_UNIT(#57)LENGTH_UNIT()SI_UNIT(.MILLI.,.METRE.));
#84=ADVANCED_FACE('',(#103),#104,.T.);
#85=ADVANCED_FACE('',(#105),#106,.F.);
#86=ADVANCED_FACE('',(#107),#108,.F.);
#87=ADVANCED_FACE('',(#109),#110,.F.);
#88=ADVANCED_FACE('',(#111),#112,.F.);
#89=ADVANCED_FACE('',(#113),#114,.F.);
#90=ADVANCED_FACE('',(#115),#116,.T.);
#91=ADVANCED_FACE('',(#117),#118,.F.);
#92=ADVANCED_FACE('',(#119),#120,.F.);
#93=ADVANCED_FACE('',(#121),#122,.F.);
#94=ADVANCED_FACE('',(#123),#124,.F.);
#95=ADVANCED_FACE('',(#125),#126,.F.);
#96=ADVANCED_FACE('',(#127),#128,.T.);
#97=ADVANCED_FACE('',(#129),#130,.F.);
#98=ADVANCED_FACE('',(#131),#132,.F.);
#99=ADVANCED_FACE('',(#133),#134,.F.);
#100=ADVANCED_FACE('',(#135),#136,.F.);
#101=ADVANCED_FACE('',(#137),#138,.F.);
#103=FACE_OUTER_BOUND('',#139,.T.);
#104=PLANE('',#140);
#105=FACE_OUTER_BOUND('',#141,.T.);
#106=PLANE('',#142);
#107=FACE_OUTER_BOUND('',#143,.T.);
#108=PLANE('',#144);
#109=FACE_OUTER_BOUND('',#145,.T.);
#110=PLANE('',#146);
#111=FACE_OUTER_BOUND('',#147,.T.);
#112=PLANE('',#148);
#113=FACE_OUTER_BOUND('',#149,.T.);
#114=PLANE('',#150);
#115=FACE_OUTER_BOUND('',#151,.T.);
#116=PLANE('',#152);
#117=FACE_OUTER_BOUND('',#153,.T.);
#118=PLANE('',#154);
#119=FACE_OUTER_BOUND('',#155,.T.);
#120=PLANE('',#156);
#121=FACE_OUTER_BOUND('',#157,.T.);
#122=PLANE('',#158);
#123=FACE_OUTER_BOUND('',#159,.T.);
#124=PLANE('',#160);
#125=FACE_OUTER_BOUND('',#161,.T.);
#126=PLANE('',#162);
#127=FACE_OUTER_BOUND('',#163,.T.);
#128=PLANE('',#164);
#129=FACE_OUTER_BOUND('',#165,.T.);
#130=PLANE('',#166);
#131=FACE_OUTER_BOUND('',#167,.T.);
#132=PLANE('',#168);
#133=FACE_OUTER_BOUND('',#169,.T.);
#134=PLANE('',#170);
#135=FACE_OUTER_BOUND('',#171,.T.);
#136=PLANE('',#172);
#137=FACE_OUTER_BOUND('',#173,.T.);
#138=PLANE('',#174);
#139=EDGE_LOOP('',(#175,#176,#177,#178));
#140=AXIS2_PLACEMENT_3D('',#179,#180,#181);
#141=EDGE_LOOP('',(#182,#183,#184,#185));
#142=AXIS2_PLACEMENT_3D('',#186,#187,#188);
#143=EDGE_LOOP('',(#189,#190,#191,#192));
#144=AXIS2_PLACEMENT_3D('',#193,#194,#195);
#145=EDGE_LOOP('',(#196,#197,#198,#199));
#146=AXIS2_PLACEMENT_3D('',#200,#201,#202);
#147=EDGE_LOOP('',(#203,#204,#205,#206));
#148=AXIS2_PLACEMENT_3D('',#207,#208,#209);
#149=EDGE_LOOP('',(#210,#211,#212,#213));
#150=AXIS2_PLACEMENT_3D('',#214,#215,#216);
#151=EDGE_LOOP('',(#217,#218,#219,#220));
#152=AXIS2_PLACEMENT_3D('',#221,#222,#223);
#153=EDGE_LOOP('',(#224,#225,#226,#227));
#154=AXIS2_PLACEMENT_3D('',#228,#229,#230);
#155=EDGE_LOOP('',(#231,#232,#233,#234));
#156=AXIS2_PLACEMENT_3D('',#235,#236,#237);
#157=EDGE_LOOP('',(#238,#239,#240,#241));
#158=AXIS2_PLACEMENT_3D('',#242,#243,#244);
#159=EDGE_LOOP('',(#245,#246,#247,#248));
#160=AXIS2_PLACEMENT_3D('',#249,#250,#251);
#161=EDGE_LOOP('',(#252,#253,#254,#255));
#162=AXIS2_PLACEMENT_3D('',#256,#257,#258);
#163=EDGE_LOOP('',(#259,#260,#261,#262));
#164=AXIS2_PLACEMENT_3D('',#263,#264,#265);
#165=EDGE_LOOP('',(#266,#267,#268,#269));
#166=AXIS2_PLACEMENT_3D('',#270,#271,#272);
#167=EDGE_LOOP('',(#273,#274,#275,#276));
#168=AXIS2_PLACEMENT_3D('',#277,#278,#279);
#169=EDGE_LOOP('',(#280,#281,#282,#283));
#170=AXIS2_PLACEMENT_3D('',#284,#285,#286);
#171=EDGE_LOOP('',(#287,#288,#289,#290));
#172=AXIS2_PLACEMENT_3D('',#291,#292,#293);
#173=EDGE_LOOP('',(#294,#295,#296,#297));
#174=AXIS2_PLACEMENT_3D('',#298,#299,#300);
#175=ORIENTED_EDGE('',*,*,#301,.T.);
#176=ORIENTED_EDGE('',*,*,#302,.T.);
#177=ORIENTED_EDGE('',*,*,#303,.T.);
#178=ORIENTED_EDGE('',*,*,#304,.T.);
#179=CARTESIAN_POINT('',(0.0,0.0,5.0));
#180=DIRECTION('',(0.0,0.0,1.0));
#181=DIRECTION('',(1.0,0.0,0.0));
#182=ORIENTED_EDGE('',*,*,#305,.T.);
#183=ORIENTED_EDGE('',*,*,#306,.T.);
#184=ORIENTED_EDGE('',*,*,#307,.T.);
#185=ORIENTED_EDGE('',*,*,#308,.T.);
#186=CARTESIAN_POINT('',(0.0,0.0,-5.0));
#187=DIRECTION('',(0.0,0.0,1.0));
#188=DIRECTION('',(1.0,0.0,0.0));
#189=ORIENTED_EDGE('',*,*,#309,.T.);
#190=ORIENTED_EDGE('',*,*,#306,.F.);
#191=ORIENTED_EDGE('',*,*,#310,.F.);
#192=ORIENTED_EDGE('',*,*,#304,.F.);
#193=CARTESIAN_POINT('',(0.0,-5.0,0.0));
#194=DIRECTION('',(0.0,1.0,-0.0));
#195=DIRECTION('',(-0.0,0.0,1.0));
#196=ORIENTED_EDGE('',*,*,#311,.T.);
#197=ORIENTED_EDGE('',*,*,#307,.F.);
#198=ORIENTED_EDGE('',*,*,#309,.F.);
#199=ORIENTED_EDGE('',*,*,#303,.F.);
#200=CARTESIAN_POINT('',(-5.0,0.0,0.0));
#201=DIRECTION('',(1.0,0.0,0.0));
#202=DIRECTION('',(0.0,0.0,-1.0));
#203=ORIENTED_EDGE('',*,*,#312,.T.);
#204=ORIENTED_EDGE('',*,*,#308,.F.);
#205=ORIENTED_EDGE('',*,*,#311,.F.);
#206=ORIENTED_EDGE('',*,*,#302,.F.);
#207=CARTESIAN_POINT('',(0.0,5.0,0.0));
#208=DIRECTION('',(0.0,-1.0,0.0));
#209=DIRECTION('',(0.0,0.0,-1.0));
#210=ORIENTED_EDGE('',*,*,#310,.T.);
#211=ORIENTED_EDGE('',*,*,#305,.F.);
#212=ORIENTED_EDGE('',*,*,#312,.F.);
#213=ORIENTED_EDGE('',*,*,#301,.F.);
#214=CARTESIAN_POINT('',(5.0,0.0,0.0));
#215=DIRECTION('',(-1.0,0.0,0.0));
#216=DIRECTION('',(0.0,-0.0,1.0));
#217=ORIENTED_EDGE('',*,*,#313,.T.);
#218=ORIENTED_EDGE('',*,*,#314,.T.);
#219=ORIENTED_EDGE('',*,*,#315,.T.);
#220=ORIENTED_EDGE('',*,*,#316,.T.);
#221=CARTESIAN_POINT('',(10.0,0.0,5.0));
#222=DIRECTION('',(0.0,0.0,1.0));
#223=DIRECTION('',(1.0,0.0,0.0));
#224=ORIENTED_EDGE('',*,*,#317,.T.);
#225=ORIENTED_EDGE('',*,*,#318,.T.);
#226=ORIENTED_EDGE('',*,*,#319,.T.);
#227=ORIENTED_EDGE('',*,*,#320,.T.);
#228=CARTESIAN_POINT('',(10.0,0.0,-5.0));
#229=DIRECTION('',(0.0,0.0,1.0));
#230=DIRECTION('',(1.0,0.0,0.0));
#231=ORIENTED_EDGE('',*,*,#321,.T.);
#232=ORIENTED_EDGE('',*,*,#318,.F.);
#233=ORIENTED_EDGE('',*,*,#322,.F.);
#234=ORIENTED_EDGE('',*,*,#316,.F.);
#235=CARTESIAN_POINT('',(10.0,-10.0,0.0));
#236=DIRECTION('',(0.0,1.0,0.0));
#237=DIRECTION('',(0.0,0.0,1.0));
#238=ORIENTED_EDGE('',*,*,#323,.T.);
#239=ORIENTED_EDGE('',*,*,#319,.F.);
#240=ORIENTED_EDGE('',*,*,#321,.F.);
#241=ORIENTED_EDGE('',*,*,#315,.F.);
#242=CARTESIAN_POINT('',(5.0,0.0,0.0));
#243=DIRECTION('',(1.0,0.0,0.0));
#244=DIRECTION('',(0.0,0.0,-1.0));
#245=ORIENTED_EDGE('',*,*,#324,.T.);
#246=ORIENTED_EDGE('',*,*,#320,.F.);
#247=ORIENTED_EDGE('',*,*,#323,.F.);
#248=ORIENTED_EDGE('',*,*,#314,.F.);
#249=CARTESIAN_POINT('',(10.0,10.0,0.0));
#250=DIRECTION('',(0.0,-1.0,0.0));
#251=DIRECTION('',(0.0,0.0,-1.0));
#252=ORIENTED_EDGE('',*,*,#322,.T.);
#253=ORIENTED_EDGE('',*,*,#317,.F.);
#254=ORIENTED_EDGE('',*,*,#324,.F.);
#255=ORIENTED_EDGE('',*,*,#313,.F.);
#256=CARTESIAN_POINT('',(15.0,0.0,0.0));
#257=DIRECTION('',(-1.0,0.0,0.0));
#258=DIRECTION('',(0.0,0.0,1.0));
#259=ORIENTED_EDGE('',*,*,#325,.T.);
#260=ORIENTED_EDGE('',*,*,#326,.T.);
#261=ORIENTED_EDGE('',*,*,#327,.T.);
#262=ORIENTED_EDGE('',*,*,#328,.T.);
#263=CARTESIAN_POINT('',(20.0,0.0,10.0));
#264=DIRECTION('',(0.0,0.0,1.0));
#265=DIRECTION('',(1.0,0.0,0.0));
#266=ORIENTED_EDGE('',*,*,#329,.T.);
#267=ORIENTED_EDGE('',*,*,#330,.T.);
#268=ORIENTED_EDGE('',*,*,#331,.T.);
#269=ORIENTED_EDGE('',*,*,#332,.T.);
#270=CARTESIAN_POINT('',(20.0,0.0,-10.0));
#271=DIRECTION('',(0.0,0.0,1.0));
#272=DIRECTION('',(1.0,0.0,0.0));
#273=ORIENTED_EDGE('',*,*,#333,.T.);
#274=ORIENTED_EDGE('',*,*,#330,.F.);
#275=ORIENTED_EDGE('',*,*,#334,.F.);
#276=ORIENTED_EDGE('',*,*,#328,.F.);
#277=CARTESIAN_POINT('',(20.0,-5.0,0.0));
#278=DIRECTION('',(0.0,1.0,0.0));
#279=DIRECTION('',(0.0,0.0,1.0));
#280=ORIENTED_EDGE('',*,*,#335,.T.);
#281=ORIENTED_EDGE('',*,*,#331,.F.);
#282=ORIENTED_EDGE('',*,*,#333,.F.);
#283=ORIENTED_EDGE('',*,*,#327,.F.);
#284=CARTESIAN_POINT('',(15.0,0.0,0.0));
#285=DIRECTION('',(1.0,0.0,0.0));
#286=DIRECTION('',(0.0,0.0,-1.0));
#287=ORIENTED_EDGE('',*,*,#336,.T.);
#288=ORIENTED_EDGE('',*,*,#332,.F.);
#289=ORIENTED_EDGE('',*,*,#335,.F.);
#290=ORIENTED_EDGE('',*,*,#326,.F.);
#291=CARTESIAN_POINT('',(20.0,5.0,0.0));
#292=DIRECTION('',(0.0,-1.0,0.0));
#293=DIRECTION('',(0.0,0.0,-1.0));
#294=ORIENTED_EDGE('',*,*,#334,.T.);
#295=ORIENTED_EDGE('',*,*,#329,.F.);
#296=ORIENTED_EDGE('',*,*,#336,.F.);
#297=ORIENTED_EDGE('',*,*,#325,.F.);
#298=CARTESIAN_POINT('',(25.0,0.0,0.0));
#299=DIRECTION('',(-1.0,0.0,0.0));
#300=DIRECTION('',(0.0,0.0,1.0));
#301=EDGE_CURVE('',#337,#338,#339,.T.);
#302=EDGE_CURVE('',#338,#340,#341,.T.);
#303=EDGE_CURVE('',#340,#342,#343,.T.);
#304=EDGE_CURVE('',#342,#337,#344,.T.);
#305=EDGE_CURVE('',#345,#346,#347,.T.);
#306=EDGE_CURVE('',#346,#348,#349,.T.);
#307=EDGE_CURVE('',#348,#350,#351,.T.);
#308=EDGE_CURVE('',#350,#345,#352,.T.);
#309=EDGE_CURVE('',#342,#348,#353,.T.);
#310=EDGE_CURVE('',#337,#346,#354,.T.);
#311=EDGE_CURVE('',#340,#350,#355,.T.);
#312=EDGE_CURVE('',#338,#345,#356,.T.);
#313=EDGE_CURVE('',#357,#358,#359,.T.);
#314=EDGE_CURVE('',#358,#360,#361,.T.);
#315=EDGE_CURVE('',#360,#362,#363,.T.);
#316=EDGE_CURVE('',#362,#357,#364,.T.);
#317=EDGE_CURVE('',#365,#366,#367,.T.);
#318=EDGE_CURVE('',#366,#368,#369,.T.);
#319=EDGE_CURVE('',#368,#370,#371,.T.);
#320=EDGE_CURVE('',#370,#365,#372,.T.);
#321=EDGE_CURVE('',#362,#368,#373,.T.);
#322=EDGE_CURVE('',#357,#366,#374,.T.);
#323=EDGE_CURVE('',#360,#370,#375,.T.);
#324=EDGE_CURVE('',#358,#365,#376,.T.);
#325=EDGE_CURVE('',#377,#378,#379,.T.);
#326=EDGE_CURVE('',#378,#380,#381,.T.);
#327=EDGE_CURVE('',#380,#382,#383,.T.);
#328=EDGE_CURVE('',#382,#377,#384,.T.);
#329=EDGE_CURVE('',#385,#386,#387,.T.);
#330=EDGE_CURVE('',#386,#388,#389,.T.);
#331=EDGE_CURVE('',#388,#390,#391,.T.);
#332=EDGE_CURVE('',#390,#385,#392,.T.);
#333=EDGE_CURVE('',#382,#388,#393,.T.);
#334=EDGE_CURVE('',#377,#386,#394,.T.);
#335=EDGE_CURVE('',#380,#390,#395,.T.);
#336=EDGE_CURVE('',#378,#385,#396,.T.);
#337=VERTEX_POINT('',#397);
#338=VERTEX_POINT('',#398);
#339=LINE('',#399,#400);
#340=VERTEX_POINT('',#401);
#341=LINE('',#402,#403);
#342=VERTEX_POINT('',#404);
#343=LINE('',#405,#406);
#344=LINE('',#407,#408);
#345=VERTEX_POINT('',#409);
#346=VERTEX_POINT('',#410);
#347=LINE('',#411,#412);
#348=VERTEX_POINT('',#413);
#349=LINE('',#414,#415);
#350=VERTEX_POINT('',#416);
#351=LINE('',#417,#418);
#352=LINE('',#419,#420);
#353=LINE('',#421,#422);
#354=LINE('',#423,#424);
#355=LINE('',#425,#426);
#356=LINE('',#427,#428);
#357=VERTEX_POINT('',#429);
#358=VERTEX_POINT('',#430);
#359=LINE('',#431,#432);
#360=VERTEX_POINT('',#433);
#361=LINE('',#434,#435);
#362=VERTEX_POINT('',#436);
#363=LINE('',#437,#438);
#364=LINE('',#439,#440);
#365=VERTEX_POINT('',#441);
#366=VERTEX_POINT('',#442);
#367=LINE('',#443,#444);
#368=VERTEX_POINT('',#445);
#369=LINE('',#446,#447);
#370=VERTEX_POINT('',#448);
#371=LINE('',#449,#450);
#372=LINE('',#451,#452);
#373=LINE('',#453,#454);
#374=LINE('',#455,#456);
#375=LINE('',#457,#458);
#376=LINE('',#459,#460);
#377=VERTEX_POINT('',#461);
#378=VERTEX_POINT('',#462);
#379=LINE('',#463,#464);
#380=VERTEX_POINT('',#465);
#381=LINE('',#466,#467);
#382=VERTEX_POINT('',#468);
#383=LINE('',#469,#470);
#384=LINE('',#471,#472);
#385=VERTEX_POINT('',#473);
#386=VERTEX_POINT('',#474);
#387=LINE('',#475,#476);
#388=VERTEX_POINT('',#477);
#389=LINE('',#478,#479);
#390=VERTEX_POINT('',#480);
#391=LINE('',#481,#482);
#392=LINE('',#483,#484);
#393=LINE('',#485,#486);
#394=LINE('',#487,#488);
#395=LINE('',#489,#490);
#396=LINE('',#491,#492);
#397=CARTESIAN_POINT('',(5.0,-5.0,5.0));
#398=CARTESIAN_POINT('',(5.0,5.0,5.0));
#399=CARTESIAN_POINT('',(5.0,0.0,5.0));
#400=VECTOR('',#493,1.0);
#401=CARTESIAN_POINT('',(-5.0,5.0,5.0));
#402=CARTESIAN_POINT('',(0.0,5.0,5.0));
#403=VECTOR('',#494,1.0);
#404=CARTESIAN_POINT('',(-5.0,-5.0,5.0));
#405=CARTESIAN_POINT('',(-5.0,0.0,5.0));
#406=VECTOR('',#495,1.0);
#407=CARTESIAN_POINT('',(0.0,-5.0,5.0));
#408=VECTOR('',#496,1.0);
#409=CARTESIAN_POINT('',(5.0,5.0,-5.0));
#410=CARTESIAN_POINT('',(5.0,-5.0,-5.0));
#411=CARTESIAN_POINT('',(5.0,0.0,-5.0));
#412=VECTOR('',#497,1.0);
#413=CARTESIAN_POINT('',(-5.0,-5.0,-5.0));
#414=CARTESIAN_POINT('',(0.0,-5.0,-5.0));
#415=VECTOR('',#498,1.0);
#416=CARTESIAN_POINT('',(-5.0,5.0,-5.0));
#417=CARTESIAN_POINT('',(-5.0,0.0,-5.0));
#418=VECTOR('',#499,1.0);
#419=CARTESIAN_POINT('',(0.0,5.0,-5.0));
#420=VECTOR('',#500,1.0);
#421=CARTESIAN_POINT('',(-5.0,-5.0,0.0));
#422=VECTOR('',#501,1.0);
#423=CARTESIAN_POINT('',(5.0,-5.0,0.0));
#424=VECTOR('',#502,1.0);
#425=CARTESIAN_POINT('',(-5.0,5.0,0.0));
#426=VECTOR('',#503,1.0);
#427=CARTESIAN_POINT('',(5.0,5.0,0.0));
#428=VECTOR('',#504,1.0);
#429=CARTESIAN_POINT('',(15.0,-10.0,5.0));
#430=CARTESIAN_POINT('',(15.0,10.0,5.0));
#431=CARTESIAN_POINT('',(15.0,0.0,5.0));
#432=VECTOR('',#505,1.0);
#433=CARTESIAN_POINT('',(5.0,10.0,5.0));
#434=CARTESIAN_POINT('',(10.0,10.0,5.0));
#435=VECTOR('',#506,1.0);
#436=CARTESIAN_POINT('',(5.0,-10.0,5.0));
#437=CARTESIAN_POINT('',(5.0,0.0,5.0));
#438=VECTOR('',#507,1.0);
#439=CARTESIAN_POINT('',(10.0,-10.0,5.0));
#440=VECTOR('',#508,1.0);
#441=CARTESIAN_POINT('',(15.0,10.0,-5.0));
#442=CARTESIAN_POINT('',(15.0,-10.0,-5.0));
#443=CARTESIAN_POINT('',(15.0,0.0,-5.0));
#444=VECTOR('',#509,1.0);
#445=CARTESIAN_POINT('',(5.0,-10.0,-5.0));
#446=CARTESIAN_POINT('',(10.0,-10.0,-5.0));
#447=VECTOR('',#510,1.0);
#448=CARTESIAN_POINT('',(5.0,10.0,-5.0));
#449=CARTESIAN_POINT('',(5.0,0.0,-5.0));
#450=VECTOR('',#511,1.0);
#451=CARTESIAN_POINT('',(10.0,10.0,-5.0));
#452=VECTOR('',#512,1.0);
#453=CARTESIAN_POINT('',(5.0,-10.0,0.0));
#454=VECTOR('',#513,1.0);
#455=CARTESIAN_POINT('',(15.0,-10.0,0.0));
#456=VECTOR('',#514,1.0);
#457=CARTESIAN_POINT('',(5.0,10.0,0.0));
#458=VECTOR('',#515,1.0);
#459=CARTESIAN_POINT('',(15.0,10.0,0.0));
#460=VECTOR('',#516,1.0);
#461=CARTESIAN_POINT('',(25.0,-5.0,10.0));
#462=CARTESIAN_POINT('',(25.0,5.0,10.0));
#463=CARTESIAN_POINT('',(25.0,0.0,10.0));
#464=VECTOR('',#517,1.0);
#465=CARTESIAN_POINT('',(15.0,5.0,10.0));
#466=CARTESIAN_POINT('',(20.0,5.0,10.0));
#467=VECTOR('',#518,1.0);
#468=CARTESIAN_POINT('',(15.0,-5.0,10.0));
#469=CARTESIAN_POINT('',(15.0,0.0,10.0));
#470=VECTOR('',#519,1.0);
#471=CARTESIAN_POINT('',(20.0,-5.0,10.0));
#472=VECTOR('',#520,1.0);
#473=CARTESIAN_POINT('',(25.0,5.0,-10.0));
#474=CARTESIAN_POINT('',(25.0,-5.0,-10.0));
#475=CARTESIAN_POINT('',(25.0,0.0,-10.0));
#476=VECTOR('',#521,1.0);
#477=CARTESIAN_POINT('',(15.0,-5.0,-10.0));
#478=CARTESIAN_POINT('',(20.0,-5.0,-10.0));
#479=VECTOR('',#522,1.0);
#480=CARTESIAN_POINT('',(15.0,5.0,-10.0));
#481=CARTESIAN_POINT('',(15.0,0.0,-10.0));
#482=VECTOR('',#523,1.0);
#483=CARTESIAN_POINT('',(20.0,5.0,-10.0));
#484=VECTOR('',#524,1.0);
#485=CARTESIAN_POINT('',(15.0,-5.0,0.0));
#486=VECTOR('',#525,1.0);
#487=CARTESIAN_POINT('',(25.0,-5.0,0.0));
#488=VECTOR('',#526,1.0);
#489=CARTESIAN_POINT('',(15.0,5.0,0.0));
#490=VECTOR('',#527,1.0);
#491=CARTESIAN_POINT('',(25.0,5.0,0.0));
#492=VECTOR('',#528,1.0);
#493=DIRECTION('',(0.0,1.0,0.0));
#494=DIRECTION('',(-1.0,0.0,0.0));
#495=DIRECTION('',(0.0,-1.0,0.0));
#496=DIRECTION('',(1.0,0.0,0.0));
#497=DIRECTION('',(0.0,-1.0,0.0));
#498=DIRECTION('',(-1.0,0.0,0.0));
#499=DIRECTION('',(0.0,1.0,0.0));
#500=DIRECTION('',(1.0,0.0,0.0));
#501=DIRECTION('',(0.0,0.0,-1.0));
#502=DIRECTION('',(0.0,0.0,-1.0));
#503=DIRECTION('',(0.0,0.0,-1.0));
#504=DIRECTION('',(0.0,0.0,-1.0));
#505=DIRECTION('',(0.0,1.0,0.0));
#506=DIRECTION('',(-1.0,0.0,0.0));
#507=DIRECTION('',(0.0,-1.0,0.0));
#508=DIRECTION('',(1.0,0.0,0.0));
#509=DIRECTION('',(0.0,-1.0,0.0));
#510=DIRECTION('',(-1.0,0.0,0.0));
#511=DIRECTION('',(0.0,1.0,0.0));
#512=DIRECTION('',(1.0,0.0,0.0));
#513=DIRECTION('',(0.0,0.0,-1.0));
#514=DIRECTION('',(0.0,0.0,-1.0));
#515=DIRECTION('',(0.0,0.0,-1.0));
#516=DIRECTION('',(0.0,0.0,-1.0));
#517=DIRECTION('',(0.0,1.0,0.0));
#518=DIRECTION('',(-1.0,0.0,0.0));
#519=DIRECTION('',(0.0,-1.0,0.0));
#520=DIRECTION('',(1.0,0.0,0.0));
#521=DIRECTION('',(0.0,-1.0,0.0));
#522=DIRECTION('',(-1.0,0.0,0.0));
#523=DIRECTION('',(0.0,1.0,0.0));
#524=DIRECTION('',(1.0,0.0,0.0));
#525=DIRECTION('',(0.0,0.0,-1.0));
#526=DIRECTION('',(0.0,0.0,-1.0));
#527=DIRECTION('',(0.0,0.0,-1.0));
#528=DIRECTION('',(0.0,0.0,-1.0));
ENDSEC;
END-ISO-10303-21;
